17-Dec-2020 02:43:13.247 INFO [main] org.apache.catalina.startup.VersionLoggerListener.log Server version name:   Apache Tomcat/8.5.60
17-Dec-2020 02:43:13.258 INFO [main] org.apache.catalina.startup.VersionLoggerListener.log Server built:          Nov 12 2020 17:31:55 UTC
17-Dec-2020 02:43:13.258 INFO [main] org.apache.catalina.startup.VersionLoggerListener.log Server version number: 8.5.60.0
17-Dec-2020 02:43:13.259 INFO [main] org.apache.catalina.startup.VersionLoggerListener.log OS Name:               Linux
17-Dec-2020 02:43:13.259 INFO [main] org.apache.catalina.startup.VersionLoggerListener.log OS Version:            4.14.203-156.332.amzn2.x86_64
17-Dec-2020 02:43:13.259 INFO [main] org.apache.catalina.startup.VersionLoggerListener.log Architecture:          amd64
17-Dec-2020 02:43:13.259 INFO [main] org.apache.catalina.startup.VersionLoggerListener.log Java Home:             /usr/lib/jvm/java-11-amazon-corretto.x86_64
17-Dec-2020 02:43:13.259 INFO [main] org.apache.catalina.startup.VersionLoggerListener.log JVM Version:           11.0.9.1+12-LTS
17-Dec-2020 02:43:13.259 INFO [main] org.apache.catalina.startup.VersionLoggerListener.log JVM Vendor:            Amazon.com Inc.
17-Dec-2020 02:43:13.259 INFO [main] org.apache.catalina.startup.VersionLoggerListener.log CATALINA_BASE:         /srinath/devops/apache-tomcat-8.5.60
17-Dec-2020 02:43:13.259 INFO [main] org.apache.catalina.startup.VersionLoggerListener.log CATALINA_HOME:         /srinath/devops/apache-tomcat-8.5.60
17-Dec-2020 02:43:13.260 INFO [main] org.apache.catalina.startup.VersionLoggerListener.log Command line argument: --add-opens=java.base/java.lang=ALL-UNNAMED
17-Dec-2020 02:43:13.261 INFO [main] org.apache.catalina.startup.VersionLoggerListener.log Command line argument: --add-opens=java.base/java.io=ALL-UNNAMED
17-Dec-2020 02:43:13.262 INFO [main] org.apache.catalina.startup.VersionLoggerListener.log Command line argument: --add-opens=java.rmi/sun.rmi.transport=ALL-UNNAMED
17-Dec-2020 02:43:13.262 INFO [main] org.apache.catalina.startup.VersionLoggerListener.log Command line argument: -Djava.util.logging.config.file=/srinath/devops/apache-tomcat-8.5.60/conf/logging.properties
17-Dec-2020 02:43:13.266 INFO [main] org.apache.catalina.startup.VersionLoggerListener.log Command line argument: -Djava.util.logging.manager=org.apache.juli.ClassLoaderLogManager
17-Dec-2020 02:43:13.266 INFO [main] org.apache.catalina.startup.VersionLoggerListener.log Command line argument: -Djdk.tls.ephemeralDHKeySize=2048
17-Dec-2020 02:43:13.267 INFO [main] org.apache.catalina.startup.VersionLoggerListener.log Command line argument: -Djava.protocol.handler.pkgs=org.apache.catalina.webresources
17-Dec-2020 02:43:13.267 INFO [main] org.apache.catalina.startup.VersionLoggerListener.log Command line argument: -Dorg.apache.catalina.security.SecurityListener.UMASK=0027
17-Dec-2020 02:43:13.268 INFO [main] org.apache.catalina.startup.VersionLoggerListener.log Command line argument: -Dignore.endorsed.dirs=
17-Dec-2020 02:43:13.268 INFO [main] org.apache.catalina.startup.VersionLoggerListener.log Command line argument: -Dcatalina.base=/srinath/devops/apache-tomcat-8.5.60
17-Dec-2020 02:43:13.269 INFO [main] org.apache.catalina.startup.VersionLoggerListener.log Command line argument: -Dcatalina.home=/srinath/devops/apache-tomcat-8.5.60
17-Dec-2020 02:43:13.269 INFO [main] org.apache.catalina.startup.VersionLoggerListener.log Command line argument: -Djava.io.tmpdir=/srinath/devops/apache-tomcat-8.5.60/temp
17-Dec-2020 02:43:13.270 INFO [main] org.apache.catalina.core.AprLifecycleListener.lifecycleEvent The Apache Tomcat Native library which allows using OpenSSL was not found on the java.library.path: [/usr/java/packages/lib:/usr/lib64:/lib64:/lib:/usr/lib]
17-Dec-2020 02:43:13.366 INFO [main] org.apache.coyote.AbstractProtocol.init Initializing ProtocolHandler ["http-nio-8080"]
17-Dec-2020 02:43:13.431 INFO [main] org.apache.tomcat.util.net.NioSelectorPool.getSharedSelector Using a shared selector for servlet write/read
17-Dec-2020 02:43:13.467 INFO [main] org.apache.catalina.startup.Catalina.load Initialization processed in 1849 ms
17-Dec-2020 02:43:13.614 INFO [main] org.apache.catalina.core.StandardService.startInternal Starting service [Catalina]
17-Dec-2020 02:43:13.614 INFO [main] org.apache.catalina.core.StandardEngine.startInternal Starting Servlet Engine: Apache Tomcat/8.5.60
17-Dec-2020 02:43:13.682 INFO [localhost-startStop-1] org.apache.catalina.startup.HostConfig.deployWAR Deploying web application archive [/srinath/devops/apache-tomcat-8.5.60/webapps/sample.war]
17-Dec-2020 02:43:14.414 INFO [localhost-startStop-1] org.apache.catalina.startup.HostConfig.deployWAR Deployment of web application archive [/srinath/devops/apache-tomcat-8.5.60/webapps/sample.war] has finished in [731] ms
17-Dec-2020 02:43:14.415 INFO [localhost-startStop-1] org.apache.catalina.startup.HostConfig.deployDirectory Deploying web application directory [/srinath/devops/apache-tomcat-8.5.60/webapps/ROOT]
17-Dec-2020 02:43:14.471 INFO [localhost-startStop-1] org.apache.catalina.startup.HostConfig.deployDirectory Deployment of web application directory [/srinath/devops/apache-tomcat-8.5.60/webapps/ROOT] has finished in [56] ms
17-Dec-2020 02:43:14.472 INFO [localhost-startStop-1] org.apache.catalina.startup.HostConfig.deployDirectory Deploying web application directory [/srinath/devops/apache-tomcat-8.5.60/webapps/docs]
17-Dec-2020 02:43:14.516 INFO [localhost-startStop-1] org.apache.catalina.startup.HostConfig.deployDirectory Deployment of web application directory [/srinath/devops/apache-tomcat-8.5.60/webapps/docs] has finished in [44] ms
17-Dec-2020 02:43:14.517 INFO [localhost-startStop-1] org.apache.catalina.startup.HostConfig.deployDirectory Deploying web application directory [/srinath/devops/apache-tomcat-8.5.60/webapps/examples]
17-Dec-2020 02:43:15.124 INFO [localhost-startStop-1] org.apache.catalina.startup.HostConfig.deployDirectory Deployment of web application directory [/srinath/devops/apache-tomcat-8.5.60/webapps/examples] has finished in [607] ms
17-Dec-2020 02:43:15.125 INFO [localhost-startStop-1] org.apache.catalina.startup.HostConfig.deployDirectory Deploying web application directory [/srinath/devops/apache-tomcat-8.5.60/webapps/host-manager]
17-Dec-2020 02:43:15.181 INFO [localhost-startStop-1] org.apache.catalina.startup.HostConfig.deployDirectory Deployment of web application directory [/srinath/devops/apache-tomcat-8.5.60/webapps/host-manager] has finished in [55] ms
17-Dec-2020 02:43:15.181 INFO [localhost-startStop-1] org.apache.catalina.startup.HostConfig.deployDirectory Deploying web application directory [/srinath/devops/apache-tomcat-8.5.60/webapps/manager]
17-Dec-2020 02:43:15.231 INFO [localhost-startStop-1] org.apache.catalina.startup.HostConfig.deployDirectory Deployment of web application directory [/srinath/devops/apache-tomcat-8.5.60/webapps/manager] has finished in [49] ms
17-Dec-2020 02:43:15.238 INFO [main] org.apache.coyote.AbstractProtocol.start Starting ProtocolHandler ["http-nio-8080"]
17-Dec-2020 02:43:15.269 INFO [main] org.apache.catalina.startup.Catalina.start Server startup in 1802 ms
17-Dec-2020 06:31:53.504 INFO [Thread-3] org.apache.coyote.AbstractProtocol.pause Pausing ProtocolHandler ["http-nio-8080"]
17-Dec-2020 06:31:53.519 INFO [Thread-3] org.apache.catalina.core.StandardService.stopInternal Stopping service [Catalina]
17-Dec-2020 06:31:53.661 INFO [Thread-3] org.apache.coyote.AbstractProtocol.stop Stopping ProtocolHandler ["http-nio-8080"]
17-Dec-2020 06:31:53.664 INFO [Thread-3] org.apache.coyote.AbstractProtocol.destroy Destroying ProtocolHandler ["http-nio-8080"]
